Miscellaneous Tools for Spatial Data Manipulation and Analysis • cartomisc
…
# Get partial raster data to plot in ggplot
r.gg <- gplot_data(slogo)

# Remove NA to reduce size of table
r.gg.nona <- r.gg %>%
  filter(!is.na(value))

r.gg.nona
#> # A tibble: 23,331 x 4
#>        x     y value variable
#>    <dbl> <dbl> <dbl> <fct>   
#>  1   0.5  76.5   255 red     
#>  2   1.5  76.5   255 red     
#>  3   2.5  76.5   255 red     
#>  4   3.5  76.5   255 red     
#>  5   4.5  76.5   255 red     
#>  6   5.5  76.5   255 red     
#>  7   6.5  76.5   255 red     
#>  8   7.5  76.5   255 red     
#>  9   8.5  76.5   255 red     
#> 10   9.5  76.5   255 red     
#> # … with 23,321 more rows
…
